50201,500,21500,1000,2000,mpesa,1/4/2017
50202,500,2500,1000,500,,1/4/2017
50203,500,0,0,0,,1/4/2017
50204,500,0,0,0,,1/4/2017
50205,500,4000,1000,2000,,1/4/2017
50206,500,0,0,0,,1/4/2017
50207,500,15300,1000,0,,1/4/2017
50208,500,2500,1000,0,,1/4/2017
50209,500,2500,500,0,,1/4/2017
50210,500,0,0,0,,1/4/2017
50211,500,0,0,0,,1/4/2017
50212,500,3000,500,500,,1/4/2017
50213,500,4500,1000,500,,1/4/2017
50214,500,10000,1000,500,,1/4/2017
50215,500,0,0,0,,1/4/2017
50216,500,10750,1000,0,,1/4/2017
50217,500,0,500,0,,1/4/2017
50218,500,0,0,0,,1/4/2017
50219,500,0,0,0,,1/4/2017
50220,500,0,0,0,,1/4/2017
50221,500,0,0,0,,1/4/2017
50222,500,0,500,0,,1/4/2017
50223,500,18500,1000,2000,,1/4/2017
50224,500,24500,1000,0,,1/4/2017
50225,500,1000,1000,0,,1/4/2017
50226,500,0,0,0,,1/4/2017
50227,500,0,0,0,,1/4/2017
50228,500,0,0,0,,1/4/2017
50229,500,0,1000,0,,1/4/2017
50230,500,2000,1000,0,,1/4/2017
50231,500,18500,1000,0,,1/4/2017
50232,500,8500,1000,0,,1/4/2017
50233,500,5000,1000,0,,1/4/2017
50234,500,500,1000,0,,1/4/2017
50235,500,0,0,0,,1/4/2017
50236,500,0,500,0,,1/4/2017
