50201,500,27500,1000,0,mpesa,1/4/2018
50202,500,2500,1000,0,mpesa,1/4/2018
50203,500,0,0,0,mpesa,1/4/2018
50204,500,0,0,0,mpesa,1/4/2018
50205,500,6500,1000,0,mpesa,1/4/2018
50206,500,0,0,0,mpesa,1/4/2018
50207,500,15300,1000,0,mpesa,1/4/2018
50208,500,2500,1000,0,mpesa,1/4/2018
50209,500,2500,500,0,mpesa,1/4/2018
50210,500,0,0,0,mpesa,1/4/2018
50211,500,0,0,0,mpesa,1/4/2018
50212,500,3000,500,0,mpesa,1/4/2018
50213,500,6000,1000,0,mpesa,1/4/2018
50214,500,11500,1000,0,mpesa,1/4/2018
50215,500,0,0,0,mpesa,1/4/2018
50216,500,10750,1000,0,mpesa,1/4/2018
50217,500,0,500,0,mpesa,1/4/2018
50218,500,0,0,0,mpesa,1/4/2018
50219,500,0,0,0,mpesa,1/4/2018
50220,500,0,0,0,mpesa,1/4/2018
50221,500,0,0,0,mpesa,1/4/2018
50222,500,0,500,0,mpesa,1/4/2018
50223,500,24500,1000,0,mpesa,1/4/2018
50224,500,24500,1000,0,mpesa,1/4/2018
50225,500,1000,1000,0,mpesa,1/4/2018
50226,500,0,0,0,mpesa,1/4/2018
50227,500,0,0,0,mpesa,1/4/2018
50228,500,0,0,0,mpesa,1/4/2018
50229,500,0,1000,0,mpesa,1/4/2018
50230,500,2000,1000,0,mpesa,1/4/2018
50231,500,18500,1000,0,mpesa,1/4/2018
50232,500,13500,500,0,mpesa,1/4/2018
50233,500,12000,1000,1000,mpesa,1/4/2018
50234,500,500,1000,0,mpesa,1/4/2018
50235,500,0,0,0,mpesa,1/4/2018
50236,500,0,500,0,mpesa,1/4/2018
50237,500,0,1000,2500,mpesa,1/4/2018
