050201,500,27500,1000,2000,1/3/2018
050202,500,2500,1000,0,1/3/2018
050203,500,0,0,0,1/3/2018
050204,500,0,0,0,1/3/2018
050205,500,6500,1000,0,1/3/2018
050206,500,0,0,0,1/3/2018
050207,500,15300,1000,0,1/3/2018
050208,500,2500,1000,0,1/3/2018
050209,500,2500,500,0,1/3/2018
050210,500,0,0,0,1/3/2018
050211,500,0,0,0,1/3/2018
050212,500,3000,500,0,1/3/2018
050213,500,6000,1000,500,1/3/2018
050214,500,11500,1000,500,1/3/2018
050215,500,0,0,0,1/3/2018
050216,500,10750,1000,0,1/3/2018
050217,500,0,500,0,1/3/2018
050218,500,0,0,0,1/3/2018
050219,500,0,0,0,1/3/2018
050220,500,0,0,0,1/3/2018
050221,500,0,0,0,1/3/2018
050222,500,0,500,0,1/3/2018
050223,500,24500,1000,2000,1/3/2018
050224,500,24500,1000,0,1/3/2018
050225,500,1000,1000,0,1/3/2018
050226,500,0,0,0,1/3/2018
050227,500,0,0,0,1/3/2018
050228,500,0,0,0,1/3/2018
050229,500,0,1000,0,1/3/2018
050230,500,2000,1000,0,1/3/2018
050231,500,18500,1000,0,1/3/2018
050232,500,13500,500,1000,1/3/2018
050233,500,12000,1000,1000,1/3/2018
050234,500,500,1000,0,1/3/2018
050235,500,0,0,0,1/3/2018
05236,500,0,500,0,1/3/2018
05237,500,0,1000,0,1/3/2018
