050201,500,21500,1000,2000,Jun-17
050202,500,2500,1000,500,Jun-17
050203,500,0,0,0,Jun-17
050204,500,0,0,0,Jun-17
050205,500,4000,1000,0,Jun-17
050206,500,0,0,0,Jun-17
050207,500,15300,1000,0,Jun-17
050208,500,2500,1000,0,Jun-17
050209,500,2500,500,500,Jun-17
050210,500,0,0,0,Jun-17
050211,500,0,0,0,Jun-17
050212,500,3000,500,500,Jun-17
050213,500,4500,1000,500,Jun-17
050214,500,10000,1000,500,Jun-17
050215,500,0,0,0,Jun-17
050216,500,10750,1000,0,Jun-17
050217,500,0,500,0,Jun-17
050218,500,0,0,0,Jun-17
050219,500,0,0,0,Jun-17
050220,500,0,0,0,Jun-17
050221,500,0,0,0,Jun-17
050222,500,0,500,0,Jun-17
050223,500,18500,1000,2000,Jun-17
050224,500,24500,1000,0,Jun-17
050225,500,1000,1000,1000,Jun-17
050226,500,0,0,0,Jun-17
050227,500,0,0,0,Jun-17
050228,500,0,0,0,Jun-17
050229,500,0,1000,0,Jun-17
050230,500,2000,1000,0,Jun-17
050231,500,18500,1000,10000,Jun-17
050232,500,8500,1000,0,Jun-17
050233,500,5000,1000,0,Jun-17
050234,500,500,1000,0,Jun-17
050235,500,0,0,0,Jun-17
05236,500,0,500,0,Jun-17
