50201,KARIUKI,CHARLES NYANDIA,neal,3/28/2017,2.54722E+11,25582413,500,21500,27500,1000
50202,MBURU,MARY WAMBUI,,2/1/2017,2.54727E+11,25258740,500,2500,2500,1000
050203,NDUNGU,SARAH WAMBUI,,2/3/2017,2.54724E+11,23179645,500,0,0,0
050204,NDUNGU,JOSEPH KIHIA,,3/2/2017,2.54725E+11,22634201,500,0,0,0
050205,JULIA,CATHERINE WAMBUGHA,,3/1/2017,2.54712E+11,22634680,500,4000,6000,1000
050206,KABOTIA,SAMWEL,,3/1/2017,2.54722E+11,20485197,500,0,0,0
050207,CHAMWADA,DAVID GUDAHI,,3/3/2017,2.54726E+11,24668435,500,15300,15300,1000
050208,BOLO,BRIAN CARTER,,3/2/2017,2.54722E+11,,500,2500,2500,1000
050209,KIVUTI,RAPHAEL MUGAMBI,,2/3/2017,2.54715E+11,27867819,500,2500,2500,500
050210,MACHOKA,DOUGLAS MAKORI ,,3/21/2017,2.54728E+11,24226409,500,0,0,0
050211,ONKOBA,THOMAS MOGIRE,,3/21/2017,2.54727E+11,22956227,500,0,0,0
050212,TITUS,JONES MUSYOKI,,3/3/2017,2.54795E+11,,500,3000,3000,500
050213,NYOIKE,BRIAN MUNGAI,,3/29/2017,2.54706E+11,,500,4500,6000,1000
050214,KIOKO,JOSEPH MWENDWA,,4/5/2017,2.54719E+11,,500,10000,11500,1000
050215,MUTINDA,MARY WAMBUA,,3/28/2017,2.54724E+11,,500,0,0,0
050216,ODANGA,MOAH ANZUGIRA,,4/1/2017,2.54722E+11,,500,10750,10750,1000
050217,PESSAH,SOPHIA MNYARI,,4/3/2017,2.5473E+11,,500,0,0,500
050218,MAKITI,CATHERINE NZULA,,4/10/2017,2.54723E+11,,500,0,0,0
050219,GEORGE ,LUCIA NGINA,,4/12/2017,2.54727E+11,,500,0,0,0
050220,ITYENG,ESPERITO,,5/8/2017,2.54726E+11,,500,0,0,0
050221,MAKITE,MERCY KATHURE,,4/3/2017,2.54716E+11,,500,0,0,0
050222,MIRITI,,,3/2/2017,,,500,0,0,500
050223,MWANGI ,DAVID KIMANI,,3/2/2017,2.5472E+11,,500,18500,24500,1000
050224,MACHARIA,HUMPHREY,,3/2/2017,2.5472E+11,,500,24500,24500,1000
050225,MOKAYA,MARGARET,,5/10/2017,2.54703E+11,,500,1000,1000,1000
050226,KARUGU,JACK MWANGI,,5/12/2017,2.5473E+11,,500,0,0,0
050227,KIMARU,BEATRICE WANGUI,,5/12/2017,2.54716E+11,,500,0,0,0
050228,KARUGU,DAVID NJOROGE,,5/12/2017,2.54704E+11,,500,0,0,0
050229,KARANJA,MARGARET NYAMBURA,,5/13/2017,2.54725E+11,,500,0,0,1000
050230,JOAN ,MWENDE KIMEU,,5/17/2017,2.54722E+11,,500,2000,2000,1000
050231,KARIGITHU,CHARLES MENJA,,5/23/2017,2.54722E+11,,500,18500,18500,1000
050232,MWAU ,MBITHE JUSTINA,,6/6/2017,2.54723E+11,,500,8500,12500,500
050233,KABURIA,JENNIFER ,,7/4/2017,2.54722E+11,,500,5000,8000,1000
050234,MURIUKI,JUSTUS NJOGU,,7/21/2017,,,500,500,500,1000
050235,MURIMI,BERNARD,,7/21/2017,2.54711E+11,,500,0,0,0
050236,NYAKEYA ,ABEL ABERI,,8/1/2017,,,500,0,0,500
050237,CHARO,MARSEDEN RUWA,,3/1/2018,2.54727E+11,22480351,500,0,0,1000
050238,Komen,,,,,,,,,
050239,,,,,,,,,,
050240,,,,,,,,,,
050241,,,,,,,0,0,0,0
,Komen,Stephen Kiprono,,20/7/2018,,,0,0,0,0
,Irene,Murimi,,20/7/2018,,,0,0,0,0
,Akinyi,Dorothy,,20/7/2018,,,0,0,0,0
,Samuel,Karanja,,20/7/2018,,,0,0,0,0
,Brian,Monga,,20/7/2018,,,0,0,0,0
,Judy,Wakio,,20/7/2018,,,0,0,0,0
