1,Rosemary Waweru,254726827627
3,Joseph Njuuru,254721722739
5,Millicent Muriiithi,254722951802
9,Francis Njogu,254733994677
10,Stephen K Waweru,254721875450
12,John Kangethe,254722651426
15,Harisson Kariuki,254
20,Amos Muriithi,254722960604
21,Moses M Wachira,254
22,Joannes Owino,254720998260
24,Peter Wambugu,254734950166
25,Maina Gitonga,254723709564
28,Charity M Ndiritu,254722558686
29,Isack Kibunja,254721706458
32,Lydia Ngibuini,254721541205
34,John Karanu,254734132638
37,Stella Njenga,254722318645
39,Florence Mwaniki,254722412739
62,Dorothy Wachira,254723639911
64,Maurice Musachi,254723274672
74,Willie Muiruri,254
78,Mwangi Gichinga,254722388099
79,Paul Githae,254721605649
81,David Wachira,254725852200
82,Lucy Wachira,254724949886
86,Pauline Ndungu,254720391321
88,Reuben Kihara,254720287027
90,Ruth Njeri Njoroge,254724304494
92,Agnes M Kariuki,254722969707
95,Peter Mura,254722837900
99,Purity Nyawira,254733418043
104,Dedan Mugo,254720478445
112,Joe K Munene,254725532570
113,Dickson Kibuu,254722416895
116,Duncan Kingoori,254721410339
118,Susan  M Kamau,254722256623
119,Esther macharia,254724548069
120,Jedidah Mugane,254726593594
121,Amos Kimani,254729371870
122,Edwin  Ndichu,254721175603
128,Mary Chivatsi,254724030821
134,Caroline Akinyi,254722439538
139,Juliana Wafula,254710977528
141,Cathreen Wambui,254721344316
142,Henry K Mwangi,254722633177
144,Lucy Mugo,254722797344
145,Peter Njoroge,254725584365
149,Irene Bejah,254712460605
155,Evans Maabi,254722890305
163,Nancy Githogori,254722298897
166,John Kamau,254721754722
168,George Biaru,254723001563
169,Nancy  Mura,254723428482
175,Nzambi Nduto,254720794286
177,Jeremiah Kariuki,254722673376
178,Solomon Muriiithi,254721820302
179,Alice Mureithi,254722597553
181,Shila Gemma Wangari,254720660421
182,Henry Gichuhi,254722346086
187,Benson Mwangi,254723971913
191,Doris Nyambura,254710977563
193,Stephen Kibe Karanu,254722411894
194,Edith Mithamo,254729740487
197,John E Karigo,254722920978
199,Selina Mweta,254721538061
200,Josphine Mulinge,254723297960
202,Eunice M Mwakisha,254720484855
205,Hellen Njambi kimani,254729225491
207,Charles Gacheche,254724323579
217,Justus Ireri,254727958403
222,Susan M Nyamu,254723317663
224,Lillian Wameyo,254724492925
228,Peterson Matu,254723985684
233,Anne Rose Wambui,254721330745
235,Jane N Kamau,254722360552
236,Reuben Rukwaro,254713390102
238,Ephantus M Muriuki,254713214879
243,Mary  njambi Waruingi,254724654333
244,Keziah Njeri  Gitonga,254720676133
247,James Munge,254720306327
248,Anne Adede,254729782818
258,Paul Njue Karanja,254725572392
262,Samwel Chege,254721895783
265,George M  Karongo,254721975728
267,George M  Waigwa,254720334835
269,Peter Ndungu Mwangi,254722508281
270,Jackson M Mwangi,254733760874
275,Evalyne Mwanthi,254722948833
280,Jane  Wanjiku Murage,254733898548
281,Anne W.  Githae,254724715771
283,Elvan Gichana,254722651204
285,Milah Wachu,254715479812
290,Anna Kinyanjui,254720816242
295,Margret Dama Baya,254
298,Esther Nganga,254720470745
300,Khalif mohammed,254723676511
301,Reuben Kimotho,254721160040
302,Samwel Thairu,254
303,Robert  Makumi,254
304,Kalume Mulai,254727873525
309,Bildad Kahiga,254724519473
310,Esther Wanja Njihia,254725245027
312,SimonNdegwa ,254723345329
313,Paul Onsiro,254724156892
316,Margret W Njenga,254727492088
319,Eunice Wambugu,254723712680
332,Rose Grace Wambui,254718091810
333,Jeniffer Kabura,254725258349
337,Millicent  Gitonga,254729337861
338,George Gicheha,254722838910
339,Eunice Akinyi Nyanjom,254723673608
340,Jane Mbula Kimeu,254722314524
343,Rosemary Nyanjom,254720211263
345,Janet Munywoki,254728077663
348,Jane Wangari Nganga,254721484403
350,Fidelis Kariuki,254720076097
351,Susan Nyokabi,254721927924
353,Sarah Mbogo,254712671184
354,Sofilinah Mwachala,254727650322
356,Dinah muthoni Thaara,254729877327
357,Mary Muthoni Wacheke,254753262528
358,Robinah Taabu Mustafa,254721214573
359,Felistas M Mutiso,254727521096
360,Harisson Ngigi,254723071893
363,Samwel M Ivali,254722382332
366,Richard Gachemi,254724630262
367,Caroline A Kibera,254721608010
368,Maurice Odongo,254722757550
371,Milcah Ndungu,254724107041
373,Anne Wanja Mwangi,254723550257
378,Agripina Mwaburi,254711885938
381,Shadrack N Machoro,254720475645
382,Phoebe omondi,254726888604
383,Andrew Agoro,254728780183
384,Peter Muhoro mbogo,254720349846
385,Boaz Odhiambo,254721957960
386,John Boro Nganga,254727430728
390,Rahab macharia,254721523364
391,Brackcitis musonye,254724673515
392,David M Mwangi,254723651047
393,Winfred Ema Muhia,254724681148
394,Wilson Gichina,254721935281
395,Eunice Kariuki,254710542822
397,Naomi K Nyangechi,254
400,Michael Mureithi,254722827607
401,Irene Mumbi Kinyanjui,254726106279
403,PCEA Makupa Academy,254720789353
404,Nancy Wambui,254716328418
408,Lucy N gachemi,254722306802
413,Moses Okoth,254721900265
417,Peter Mwagholo,254720785624
418,Gladys gathoni,254722658510
419,Samwel Okebiro,254725758680
420,Nicholas Juakali,254721704658
421,Stephen Maina Kahinga,254721760996
422,Francis Chege,254720100411
424,Edward njoka,254724114347
426,Lillian N Mwangi,254728067170
428,Peter Zakayo Kariuki,254722250588
429,Beatrice W Kariuki,254722871886
430,Anne kibunja,254725605140
432,Damaris Kahura,254720804977
434,Samwel kinyua,254721806439
437,Jacinta Z Ndolo,254714122495
439,Elizabeth N Kamau,254721149055
444,Thomas Ndungu Mbugua,254702148143
446,Loise N Kimani,254722281277
449,Caroline M Mburu,254714939743
451,kennedy odera,254720820027
452,Edith Wahinya thairu,254720552038
455,Lucy Ngina,254728907090
456,Anne Mwhihaki Gatinu,254720359275
457,Esther Mwendwa,254720392871
460,Timothy Muchiri,254722424742
467,Moses Ngari,254727303832
468,Joseph Chelule,254721234012
469,Silas Watiri thuo,254722841542
470,Juma Munga Kaingu,254720541317
471,Purity Mueni muema,254720676334
474,Francis Muteru,254722171856
475,Lawrence ngibuini,254722814161
476,Jaquiline Nyaboke,254727306335
477,Caroline Kagema,254712048331
481,Caroline wanjiku,254725343500
482,Paul Kamau njoroge,254722880099
485,Naomi W Gititu,254722604270
489,Nancy Wanjiru Githogori,254722865390
490,Peter Kamau Gichina,254726640738
493,Mary W Mathenge,254734297434
495,Naomi F Kiragu,254722408823
496,Christopher Gicheru,254723077146
498,Nancy W Mbugua,254721484415
499,Penina  Wanjiku Njogu,254720758230
503,Jackson M Mwangi,254722358955
505,Grace A Adede,254717600817
514,Stephen K Njogu,254725285181
517,Grace Njeri Karanja,254723924432
519,Wilson Kamau Munene,254727369643
523,James Wataku Ngure,254722767021
525,James kinyanjui ndungi,254722275475
526,Joe Gicheha kinyanjui,254722972562
542,Mario kariuki,254724558658
543,Rose Wanja Mutua,254720223923
545,Julius G Githinji,254722104817
546,Margret M Mwaura,254728114778
547,Edith W Ndungu,254723555847
553,Ndara James,254720179434
555,Karanja P B Mwangi,254707486426
558,Gertrude Chengo,254715721781
559,Anastacia Wambui Thuku,254722806926
560,Esther W Kimani,254724052466
573,Joseph  Njihia,254721783198
577,Hannah Muthoni,254725312826
578,Ruth M Mwangi,254722247785
579,Susan W Gicheru,254723417473
581,Margret M Wachira,254727554731
582,Anne Kigio Njogu,254726741249
584,Joseph Muriuki  Hinga,254722860379
588,Phyllis Mwaura,254717710946
591,Christine Samba mwalugha,254725711563
592,Lillian Adhiambo Aguta,254720416424
599,Joyce W Githinji,254722318394
613,ROSEMARY WANGAMWA MUTAHI,254721403898
619,ANNE WAMBUI DAVID,254726793207
620,EUNICE M CHIVASI,254711715547
621,MARGRET WAITHIRA MACHUGU,254713633182
622,ELIZABETH WAITHIRA NJUGUNA,254727840029
625,FAITH WANJIRU MURAGE,254721544254
626,JACQULINE WAIRIMU KAMAU,254723412045
628,DAMARIS NJOKI NJANJA,254720668328
632,MARY NJERI WAWERU,254724608068
633,THAGICHU PATRICK NDIRANGU,254721218512
635,SAMWEL GICHERU KINYUA,254722871182
639,PETER MWANGI GATUKU,254722326062
640,JOSPHINE GACHERI,254718553196
648,LEAH W NGANGA,254728052991
650,SAMUEL WACHIRA MACHARIA,254722401648
652,ROSEMARY ADHIAMBO ODENYO,254721932386
655,REBECCA NJERI MACHARIA,254726157005
659,RUTH MUTHONI MAINA,254722269217
661,JENIFFER RIGHA,254713275291
662,SAMUEL NJUGUNA MUNGAI,254727516115
663,JOHN CHEGE GIKERA,254724872442
666,CHARLES WACHIRA KABUGI,254726458201
669,SAMUEL MALEMBI MGANDI,254718750195
679,TERESIA WANGUI KAMAU,254720796486
680,PAULINE NJERI MUCHERU,254705628933
681,JOHN NJENGA MUNYAKA,254722824298
683,PETER NDEGWA MUTHONI,254716568741
687,HELLEN WAIRIMU NDIRANGU,254720387761
689,NANCY GATHONI NJOROGE,254725700560
692,ROSEMARY ONDECHE,254723336339
693,PENINA NANDARI ATWA,254722662336
694,SCOLASTICA MBALA,254721284088
696,JANE NYAKIRO GIKURU,254729148504
698,ROSEBELLA ASIKO IMBUYE,254726509001
699,MARGRET  WAMBUI GICHEHA,254
700,MARY WACHUKA NGINYO,254734904495
701,PHAMINAS KAMAU NJOROGE,254728035797
702,BEATRICE WANJA KANGERE,254726992559
704,JOHN MARK GICHIRA WAHOME,254722660343
705,BENARD MBUGUA THAGICHU,254722993197
708,JUDAH EMMANUEL ATEMBA,254722103744
709,DAVID NDUATI WACHAI,254722703485
710,DOREEN ANYANGO OKOTH,254717541336
711,LEAH WAMBUI NGUGI,254721776626
716,JENIFFER WAMBUI NDUNGU,254724083388
717,ODILLA SHALI,254729476825
719,JOHN MWANGI MANGA'E,254724462989
724,RENSON MBUTHIA WANJOHI,254725725319
725,MARY NYAWIRA MWANGI,254728949212
727,CHARLES MUGO MWANGI,254
728,GRACE WANGARI NJOROGE,254723844936
732,FREDRICK MAMBO,254710486711
733,BEATRICE KARIMI NYAMU,254711507392
737,STELLA WAWIRA MUTUA,254726894917
740,FREDRICK GITARI WANJOHI,254721914903
741,ROSEMARY WALI MGHANGA,254721230881
744,CHARLES OUNDO,254725770601
745,PERIS MUTHONI KINYANJUI,254723414687
746,GETRUDE WANJA,254722726843
751,NELSON THUGU THAGICHU,254724506018
752,HANNAH WAIRIMU IGOGO,254702998000
756,PATRICK NJENGA NJAU,254721254511
757,SUSAN WAMBUI MWAI,254724812453
758,JOEL GITHIRII,254734764342
760,DOMINIC MAILU,254724103274
762,CRISPUS WAITHAKA,254722996042
764,PHYLLIS WAITHERERO GATUHI,254713993944
765,ELIZABETH ADHIAMBO NYANJOM,254727941422
766,JANE NJOKI KIMANI,254725755533
768,CHEBET PEGGY,254725251870
771,HUMPHREY MWITARIA MACHARIA,254720442853
777,P.C.E.A MAKUPA PARISH,254722938188
778,ISAAC KURIA KAMONDE,254750636979
779,LOISE KIMANI,254726526018
780,SAMUEL MAINA MWANGI,254726975455
781,FRANCIS KAMUNYU KIHARA,254721897692
786,RAPHAEL MWAURA MACHARIA,254724543608
788,DUNSTAN MURIUKI MUKABURU,254722400023
792,ROBERT KAMAU GECHINA,254729223011
793,DORCAS WANJIRU NJOROGE,254723460443
794,KAREN W KARIUKI KIHIKA,254722633699
797,ALICE WAITHERA KURIA,254714042345
799,NANCY MUTHONI MURIITHI,254722841492
800,ESTHER WAMAITHA MUNGE ,254727632953
802,ALICE WAMBUI MAGONDU,254722640758
803,ROBINA AJIAMBO LUDENDE,254701336719
804,JACINTA NJOKI KARUGA,254727350223
806,SAMUEL WARURU NYAMBURA,254723360067
808,PETER MWATHI MWAI,254722740783
810,GRACE GERTRUDE NYAMBURA MUNGAI,254722402488
812,JOHN MUTURI KIRANGO,254721607341
815,P.C.E.A MAKUPA LOCAL CHURCH,254
816,OBED KIBE KIMOTHO,254721631979
818,ANTHONY WACHIRA NGARI,254722876552
819,GEOFFERY KINYANJUI NGWARE,254721425594
820,CATHERINE WANGARI,254723315131
822,JANE NYAWIRA GATAGUO,254725435838
823,BETTY KATHAMBI KIMANI,254723797958
824,PATRICK IRUNGU KIMANI,254726397995
825,ANN WANJIKU KIMANI,254723123313
826,ROSE NYAWIRA KABUI,254720883934
827,MOHAMED GODHANA KOROBO,254736127505
828,FELISTA WANGARI MWOI,254722664315
829,ANNAH WANGUI NGURE,254721538374
834,BEATRICE  GITHAIGA,254722351238
837,COUPLE FOR CHRIST SELF HELP GROUP,254720967301
842,CHARLES KURIA KAMAU,254721292791
845,MONICAH WATHONI MBURU,254725684981
846,JOSEPH WANDARIO MWANGI,254723834869
847,STANLEY NDARA HINGA,254722803931
848,DAVID MWAURA RUCHIU,254721601843
849,IRENE WAMBUI THEGEME,254723345600
850,FREDRICK OTIENO JUMA,254705152767
851,HARRISON WAHOME KIHINGU,254721550590
852,NANCY WIKUNZA LILUNGU,254
853,HANNAH WAMBUI NGANGA,254721369014
855,LUCY KARIMI KAMUGANE,254721536253
856,RUTH WANJIKU GITAU,254705410962
860,DOREEN GACHERI MUNGATIA,254721204148
862,ESTHER WAITHIRA GAKUO,254721486417
864,JANE MUTHONI MUGO,254715488738
865,STEPHEN KAMURA KARANJA ,254720700377
866,PUIS NDUNGU MUTHANGA,254720852666
876,ELIZABETH WAYEKO MMASI,254729554423
879,ANNE KAREN MUMBI NJOROGE ,254712633796
880,MARGARET WANGUI GAHENYA,254722501013
881,LILIAN ADHIAMBO OGUTU,254787607880
883,ESTHER GAKENIA KIRONG'O,254720412236
884,STEPHEN NGARARI NJERI,254725263620
886,ANTHONY MUREITHI NJAGI,254721891616
887,EDDAH JOSEPHINE NANDI,254717548433
888,KWEKWE CHIDUNDU JUMA,254723948382
889,CHAUSIKU OMAR,254727215092
890,ALICE MUMBA HARE,254710301926
891,MARIAM CHITSALA CHIVUNDE,254714513694
894,JOHN MAINA WAMAITHA,254722878566
898,JULIUS NDUNGU KAMAU,254723204245
899,SIMON MAINA MUTURI,254725324805
900,ALICE WANGUI MUIRURI,254728815055
901,JOYCE MUTHONI WAINAINA,254720870505
902,MERCY NYAWIRA MWANGI,254725798720
904,MANGALE MADZAO,254710146427
906,KEZIAH WAHINYA GICHURU,254722221680
911,JOHN KARIUKI KAMUNDI,254722915360
912,NANCY NJOKI MWANGI,254727315861
913,NANCY WANJIRU KIMUNDI,254722471380
914,HOWARD MUYA MACHARIA,254724514153
915,BERNARD MAINA MOCHAMA,254737133392
921,FLORENCE KALOO MWORA,254722842587
924,REUBEN KABUU WANDERI,254724062652
925,LENITY CEERA MIRUNGU,254726832024
926,BEATRICE IMINZA OMBUYA,254728260692
927,PHILIP GAKENYE MUCHOKI,254723310734
930,MARGRET WANJERI NDUNGU,254722481649
933,JEDIDAH MUTHONI KINYUA,254720563612
934,CAANAN A  GROUP,254
935,HELLEN MUENI MUTUA,254721229243
937,PCEA MAKUPA YOUTH FELLOWSHIP,254
938,GEORGE WAITHAKA KIOGE,254722530754
939,ROBERT KABICHO KAMAU,254720929871
940,CEASAR NJERU NTHIGA,254713426656
941,DAVID GICHERU NGANGA,254720967301
946,JOSTINA MUENI MWANTHI,254728932562
948,ELIUD NJUGUNA BABU,254722573468
955,NANCY KAWIRA NYAGA,254727723422
956,GEORGE MWANGI MAINA,254722681977
957,JOSPHINE WANDIA NJENGA,254722889208
958,MARGRET NJAMBI THUNGU,254721286196
959,NAPHTALI SWAKA AMBOYE,254715464423
962,NANCY AKOTH OKWACH,254727484178
963,PETER WAWERU GATEI,254722966186
965,ROMAN MAGHANGA,254729869679
966,JOSEPH NDEGWA KIAMA,254729799760
967,ROSELYNE WANJIRA NJERU,254722870420
968,SHEILA ANITA WANJIRA,254720552532
969,MARY WARINGA MUCHIRI,254727668139
970,JAMES KAMAU WACHIRA,254722815427
971,PETER MAINA GITONGA,254721129625
972,ERIC LITU ANDAMBI,254727770693
974,JOSEPH KIAMA MUCHAI,254721833258
975,PETER GICHUKI MUNYIRI,254724749901
976,ROSE WANGARI KIMANI,254721106000
977,HARUSI ALI ADHMANI,254718236799
978,ZILIPA MGHUI SAMBA,254727414109
979,JACOB HOUSE,254
980,ALBERT MAGHANGA MWATELE,254721238580
981,ESTHER NYATUGA KAMAU,254726405610
982,MARY AKOTH MBOGA,254710743426
983,JOYCE KIGAMWA MBWANGA,254725702074
984,MBUGUA IRUNGU MAGUTA,254733823293
985,MARGRET NYAGUTHII KARIUKI,254710301255
987,GRACE WAHU CHEGE,254721775280
989,ELZABETH NYAMBURA WANJIRU,254718150841
990,REUBEN KAMAU KIMANI,254720955347
992,ESTHER GATHIGIA WACHIRA,254725477118
994,EUNICE NJERI NJONGE,254724100020
995,JOHN NGUGI KINUTHIA,254723530822
996,ESTHER MUTHONI KIARIE,254722382342
997,BENSON KIARIE MUTHONI,254712201201
999,MWAURA MICHAEL,254724658155
1002,JOEL WANJAI NGAI,254720959609
1003,MARY WAMORO KANYIRI,254713433310
1007,ROSE WAKABARI NJIRU,254720978880
1008,PATRICK MWANGI MUCHERU,254
1010,BEATRICE NYANGARA NYAMIAKA,254724014425
1011,SAM KIMOTHO KALISA,254726230445
1012,VIDY NYAMBURA MAINA,254724635280
1014,ROSE WAMBUI KIMANI,254722660834
1015,IRATHIMO WELFARE,254721349436
1016,PATRICK MUNGAI MAIGWA,254728742790
1020,MUTIGA PETER MAINA,254726506022
1021,NAOMI NJERI MBURU,254722240265
1022,JOAN MUMBI NJOROGE,254724013750
1023,ELIZABETH WANJIKU KARIUKI,254723594500
1025,ROSE WAMBUI NJOROGE,254721350378
1027,BONIFACE MBUGUA KINYANJUI,254722998089
1028,MOMBASA PHOTOGRAPHERS GROUP-MPPG,254714171514
1029,SIMON GITONGA GATHII,254720331826
1030,PURITY MAKENA MIRITI &FAMILY,254720800954
1032,STEPHEN GITHUA KURIA,254713274121
1036,BEATRICE ATIENO OWUOR,254726178060
1037,VISION GROUP,254713600629
1038,ANNE GATHONI MUCHAI,254726995703
1039,JANE MUTHONI MWANGI,254723901527
1040,MARY SIDI KAZUNGU,254701796560
1042,ESTHER NJERI MUNGAI,254713308655
1043,MARGRET WAMBUI WARUIRU,254721298518
1044,FLORNCE WANGARI NGOTHO,254720585165
1047,JOHN MWANGI MAGIMA,254723176096
1048,CYNTHIA NGIRA OUNDO,254722988888
1050,FELIX CHIGWADO TSAKA,254727154914
1051,LEAH NYAMBURA MUCHIRI,254721555643
1052,JULIAH WANGARI MAINA,254727067476
1053,NEWTON MWENDA RUGENDO,254
1055,CHARLES KARIUKI NYANDIA,254721632207
1056,PETER CHEGE GICHUHI,254720579839
1059,SAMWEL MBUGUA MBURU,254726268982
1060,MARGRET WANJRU WACHIRA,254724468986
1062,CYNTHIA MBATA DAVID,254727804522
1065,BELINDA KATHURE KIRIINYA,254722564550
1066,JULIESTER CIAGITARI,254724713612
1067,JANET WAMAITHA MUTHANJI,254708511775
1069,ZAKARIA MBURU KAMAU,254725904481
1071,JANE MWIHAKI MWAURA,254721977773
1072,MICHAEL NJOROGE KAHURA,254724991129
1075,JANE NDUTA MAINA,254723824488
1076,CLARIS ADHIAMBO OKOTH ,254710866827
1077,ARENY NGALA WANJE,254707454532
1078,IRENE GITHENDU WAIGANJO,254721539797
1081,CATHERINE MKAMBUZI MTEMI,254723840676
1082,CATHERINE WUGHANGA KAMBUCHA,254717218355
1083,PAMELA KANGA KANAMPIU,254710265746
1086,JAMES MBAO MWANGI,254723810551
1088,REGINA MANGA MWASI,254710989062
1089,ROSE MUSENYA SAMMY,254701350052
1092,JOSEPH NDUNGU KARIUKI,254723922279
1095,AUSITINE MWACHAI MKALA,254738198251
1096,FREDRICK MURAGURI MWANGI,254727548424
1098,ANNE WAIRIMU WANJJOHI,254716931244
1099,JOSEPH KIRAGU MUNGAI,254721453119
1102,ANN WANJIKU NJAGUARA,254720414087
1104,MARY MUGURE KAMURA,254721159516
1105,MONICAH WAITHERA KAMAU,254720949843
1106,BEATRICE WANJIRU MUHANDA,254712404707
1107,TERESIAH WANJIKU,254726558304
1108,ROSE AKINYI OWINO,254726303667
1111,GEOFFREY  MUINU GACHAU,254715412861
1112,SUSAN WANJIRU MURIGU,254726155339
1113,TEDOCIA NGELE MKALA,254726280551
1115,MARY WANJIRU NDUNGU,254703593584
1118,MARGRET NZISA MAKAU,254722992894
1120,MERCY NJERI WAWERU,254711482015
1121,DORCUS WANGUI MUREITHI,254719517234
1122,MIRIAM WANJIKU NJENGA,254721952040
1124,AMOS NGANGA NJENGA,254720684183
1126,EVANS OWUOR AKELLO,254727724426
1127,GABRIEL KAMAU KARIUKI,254721241686
1129,ESTHER WANGARI MANGUCHO,254717419017
1130,MOSES NDERITU KARIUKI,254
1131,JOHN MUTHEE GICHUHI,254
1132,PATRICK OMONDI ODUOR,254728482199
1134,GRACE WANJIKU NJIIRI,254722170193
1136,ISAAC MWANGI KINUTHIA,254723495660
1139,LOISE WARIGIA NJOROGE,254722757705
1144,ALFRED GITHINJI MAINA,254720785172
1145,SHAMALAH MULANDAH ROBERT,254724486309
1153,PETER MATHENGE WANOGU,254727493612
1154,MARY WAMBUI MAIGUA,254722508807
1155,PETER KARIITHIKIMUNYU,254721682597
1156,DANIEL KURIA NGANGA,254725384871
1157,MIKINDANI LOCAL CHURCH,254722247785
1159,ALICE WAIRIMU MWANGI,254725587848
1161,IBRAHIM GICHUHI MUTURI,254723203466
1164,FLORENCE MWENDE NDUKU,254710568575
1166,HENRY CHEGE MUYA,254721402043
1171,MERCY NJERI NDERITU,254715635551
1174,JACKSON NGURE NDERI,254726434376
1175,EMILY WANJIRU NJUGUNA,254726269158
1177,JACKSON WARUIRU MURAGURI,254725048242
1178,MARTHA RURUMO NYOIKE,254720592933
1179,ANN NDUTA KIMANI,254
1180,JAMES MUYA MURIITHII,254723417514
1181,HELENA ROSE MAKOSI MAGHODA,254723206715
1182,MARTIN GITAU KAGUTHA,254722938303
1183,ROBERT KARIUKI,254
1185,MARTIN KIRONGO,254712062491
1186,Beatrice Maneno,254706940232
1187,KEZIAH MURINGO WANGUI,254
1188,JUDY WAMBUI MUGO,254727140710
1189,LEAH WANJIKU NDUNG'U,254714592287
1192,HENRY MUCHIRI NYAMU,254733251296
1194,BEATRICE KIBIRA,254
1195,SUSAN NDIRANGU,254720832415
1196,JANE NJERI NYOIKE,254721522124
1197,WILLIMINA CHAUSIKU OMANYO,254
1200,VERONICAH MTINI KINYONGO,254711357084
1201,SARAH WANJIRA KINYUA,254724862822
1202,NANCY WANJIKU MWANGI,254
1206,NELLY KARENDI KARIUKI,254726093733
1207,SIMON KARANJA WAMBUI,254716297366
1208,BETHUEL MUIRURI KIMUNGU,254721760955
1209,JAMES KOMBO MWINGA,254711585667
1210,MARY NJERI GITHINJI,254712147176
1211,PCEA MIRITINI L.C.C,254723716187
1212,Pcea Jomvu Church L.c.c,254
1213,Pcea Jomvu Academy,254
1216,CHRISTINAH WALI NGURE,254721436834
1217,WILSON MBURU KAMAU,254711976006
1218,KENNETH MURIITHI  GICHANGA,254720425578
1219,ANNE NJERI NJOROGE,254733982262
1220,MARY WANJIKU WANYOIKE,254725556462
1221,DAVID KAHURA,254720420225
1224,GRACE KINYA,254721764311
1226,EVANSON NGUGI KINUTHIA,254721791544
1227,FELISTAS MWONGELI KITONGA,254717633788
1228,ALEX NGIGE KIARIE,254704668450
1230,LUCY NDAWA LEWA,254
1233,ALEX KARURU WAITHIRA,254724278187
1234,PATRICK MAINA KIARIE,254723453882
1235,LUCY RISPA WANJIKU WACHIRA,254721828471
1236,HADIYA DZAME MWAJOWA,254
1237,LEAH M KANYUGO,254722358240
1239,JOSPHINE NJAMBI KIARII,254723760665
1241,MARY WAIRIMU MACHUGU,254711872067
1242,JULIUS MUHORO MWANGI,254727421600
1243,FLORENCE WAMBUI NGUYO,254710248282
1244,JUDY MBAIRE  KINYA,254
1246,LUCY WAIRIMU   CHEGE,254721453007
1249,NANCY WANJIRU GITHENDU,254722471219
1251,SAMUEL CHEGE NJUGUNA,254726627624
1253,NSHUHULI HAMISI MWARABU,254724572363
1255,JOSPHAT MAINA MBITI,254728595426
1256,FLORENCE WAIRIMU MBURU,254723794669
1257,ALFRED JOGINDA RASTO,254716579546
1259,CHRISPINE OCHIENG OBONYO,254718836767
1261,ISAAC KARANJA KANG'ETHE,254726480156
1262,TABITHA MUTHONI KANGE'THE,254
1263,SAMUEL KINYUA WAIRIMU,254721495177
1265,ALEX MUEMA WAMBUA,254707273563
1267,DANSON MUTERO KARIUKI,254722860401
1274,MARY NYOKABI WACHIRA,254711694694
1278,PANSY MUSITA,254711591311
1279,JULIUS MUTUGI KAMAU,254720792503
1280,LORRYNE NKATHA,254724861889
1282,RICHARD MUTAITI KITILI,254716095280
1288,JAMES MURIGI MUNGAI,254
1290,MATHEW MWANGI MUIRURI,254721216616
1291,DORCAS WAIRIMU NDEGWA,254722902917
1292,JOHN KAMANGU NYOIKE,254711316872
1295,MORRIS WAINAINA MUINAMO,254721781544
1296,ROSINAH MUENI MULEI,254725961843
1297,ISAAC NJUGUNA GAKERA,254722882460
1299,MOSES ODHIAMBO OLOO,254711915325
1300,MOSES NJOGU GITONGU,254722411382
1301,SHELMITH NYAWIRA MUINAMO,254729488540
1302,ANGELA KALUNDA NZUNGULI,254716129147
1303,JAMES NJENGA MBUGUA,254722390254
1304,JANE MWENDE MUTHOKA,254726394874
1305,PETER NYAMBAGADIGA  KIBAGENDI,254
1306,JACINTER MUGA  MUGASIA,254724239494
1308,DAMARIS WAHU MONYI,254722821850
1309,RAPHAEL MUTISYA KIITI,254710996388
131,TOM   MWAKAMBA,254721485399
1310,ELIZABETH WANGARI KIMANI,254
1312,JENCINTAH NJERI KIBEBE,254
1313,JOYCE NDUTA NGINYA,254721256277
1315,HELLEN KITHUKA,254717588553
1316,LOISE WAITHIRA KAMANDE,254721497798
1317,RAHAB MUTHONI  NDUNGU,254728316622
1317,ANNA WANJA NJUNGE,254715296394
1319,GEORGE GITHOGE KARIUKI,254716237783
1322,BRENDA NJOKI NJAGI,254
,DAVID MUCHERU KIRUGUMI,254723368447
,HUMPHREY AMUFANI AMULAVU,254728418061
1325,GRACE NJOKI  MACHARIA,254722252334
1326,HARRISON MBUTHIA KARIUKI,254720868010
1327,RUTH WAMBUI MATHENGE,254
1328,CAROLLINE MKAMBE JIWA,254704248480
,PENINAH NJERI,254724980908
,COSMAS GENGA OKARA,254716076805
1331,SHADRACK KARIUKI  NDERITU,254
1332,JECINTAH NJERI KIBEBE,254
1335,GRACE CONTANZIA MILIKIZEDEKI,254725348936
1341,AGNES WUGANGA E MWAISAKA,254723532009
1342,EDDY MAYAKA DAVID,254721485183
1343,ERICK NALIANYA KWEYU,254723420082
1347,JOHN ODHIAMBO ONYANGO,254711958830
1348,ANTONY JUMA WESONGA,254704468965
1349,CAROLINE MKAWUGHANGA TENGE,254
1351,EDWARD MURITHI NGARI,254728430442
1352,EVERYNE KEDOGO JALEGA,254713784755
1354,VIRGIA NJOKI WABITA,254711652676
1361,JESSE MUIKAMBA,254713696414
1366,TERESIAH NJERI GITHUKU,254705000002
1367,KEVIN MUTERO GATHAGE,254701714954
1368,CATHERINE WAMBUI WANJOHI,254
1369,HARRISON MWACHIVUMBE CHIVUMBE,254711580488
1370,JULIA NYAMBURA NJUKI,254720592345
1371,DANIEL MUCHINJI NDUNGU,254
1372,JACKSON WAWERU NDUNGU,254704194272
1374,ERICK OTIENO OJWANG,254720990654
1376,LUCY WAIRIMU KIONI,254720592345
1376,STEPHEN OTIENO OJIJO,254715081655
1376,JOYCE MUTHONI GICHUKI,254
1379,WILLIAM MWANGI MAINA,254722471395
1381,MARY MWIKALI NGIGE,254725804651
1382,NANCY WAMBUI KARANJA,254
1384,ANTONY WAIGANJO WANJIRU,254700381400
1385,JOSPHINE WAMBUI MUGIA,254723468229
1386,DIVINE NEW LIFE FELLOWSHIP,254
1387,SOLOMON CHUCHU MUNGAI,254724455017
1388,TABITHA NYAMBURA MWANGI,254727846859
1391,HENRY GICHINI KAMAU,254729004085
1392,STANLEY KIMANI MWANGI,254727497673
1393,ELIZABETH NYAMBURA MUIRURI,254722685483
1395,ELIZABETH WOTHAYA KARIUKI,254712153360
1400,EVARLYNE ANITA,254725797458
1401,MICHAEL  OTIENO AGORO OURU,254720873831
1402,FRANCIS MBUGUA MUTHONI,254
1403,JOSPHAT NGETHI NDEI,254720758585
1404,MORIS KAIRU NJUGUNA,254720984409
1407,PATRICIA NYARUAI NJUKI,254722282321
1411,FAITH WANJIKU MUTUGI,254720473813
1414,DELILAH KEBO LOMULEN,254
1415,NELSON RUTHA MWANGI,254718883778
1416,JANE GACUNKU MBUNGU,254
1417,FLORENCE NYAMBURA KIBUU,254723424914
1419,SAMUEL NJOROGE NGANGA,254720762153
1420,DUNCAN OKOTH OWINO,254
1421,JESSE KARIUKI WACHIRA,254725512568
1424,RACHAEL M MUTUTA,254
1424,LOICE WANJALA,254
1425,MARTHA SHALI KIMBIO,254
1426,CHARITY W  IKIARA,254729455876
1428,HUNDERSON BAKARI M,254
1429,EMMA MUTURI,254725542870
143,LYDIA   GATHONI,254
1436,MASHA CHARO,254728206469
1438,VIOLET BWEYENDA LIVANZE,254
1438,FAITH WANJIKUY KABIRU,254
1439,CENTRINE NAFULA MAIBEN,254704012179
1442,MAIMUNA KAREMA KITSAO,254706564812
1443,FAITH WAIRIMU MUTAHI,254
1445,SIMON KAMANDE MUTURI,254723395811
1446,CHARLES W MWANGI,254725339050
1449,LYDIA NJOKI  JULIUS,254725339050
,MARY THIRI MAINA,254713481955
1451,SOFIA MZEE JAKA,254719129989
1453,SERAH WARUCHU  MUTHANJI,254721287557
1454,DAVID MWANIKI NJUGUNA,254727941413
1456,FAITH MAKENA MUTHOMI,254713333062
1457,BETH WANJIRU KINYUA,254722409564
1458,FROLENCE PHANICE LIYABI,254721965055
1460,WILSON NYAGA GICOVI,254722593366
1461,RUTH WAMBURA BOKHE,254720591368
1461,GEORGE OTIENO ORONDO,254712589167
1463,PERPETUA MURINGO MWANGI,254711544260
1464,JOHN NGAMAU NDEGWA,254728889264
1465,MERCY MUTHONI GAKUNGA,254719621833
1467,JUDITH NALIAKA WANYAMA,254726628850
1468,VIRGINIAH NJERI MBUGUA,254
1470,FADHILI WERE,254719630930
1471,SIMON NDUMIA WAMAHIGA,254
1473,JANE WANJIRA NJOROGE,254
1473,FLORENCE HALAKO JILLO,254729393481
1470,JANE WANGUI GICHANGI,254727109653
1475,MARY MNYAZI,254
1476,JAMES NZIKALI MWEPHU,254
1479,ESTHER WANJIRU  KARIUKI,254725000720
1480,EDWIN IRUNGU MUKERA,254724982810
1481,MARY WAITHERA CHACHA,254720338492
1482,PATRICK MAINA KARIUKI,254714023339
1483,GRACE WAITHERA THUNGU,254
1485,FAITH KAGWIRIA NKATHA,254728227007
1486,LUCY MUTHONI,254
1487,MACKNON MARKET,254
1488,JOYCE MUTHONI NYAMBURA,254726569618
1489,ANN WAKURAYA GITONGA,254716315600
1490,CHRISTOPHER GITAHI MWANGI,254739163488
1491,EMMANUEL NZOA ATHMAN,254
1492,GLADYS MUTHONI KABAU,254724262713
1493,LUKE KAMAU MBITI,254718368468
1494,BERNARD GIKONYO MWANGI,254727261279
1495,LIZEBETH NGUGI,254713248709
1496,SALOME WANJIRU MUIRURI,254
1497,ROSE NYANCHOKA OKWOYO,254
1499,EMELDA MAKOLO MADIANGI,254
1500,PCEA KISAUNI CHURCH,254773194117
1501,SAIDI MWERO CHIDZELI,254716261701
1503,SAMUEL MAINA GITHOGE,254
1504,JANE NYAMBURA KIARIE,254
1505,POLIVIOUS MAINA GITONGA,254720959089
1506,FAITH NJERI KAMANDE,254
1507,DORCAS WANJIRU GICHINA,254715937789
1509,AYUB RICHU MBUGUA,254710304059
1510,PURITY NYAMBURA NDUTA,254
1511,MONICAH WANJIKU NJOROGE,254
1512,DAVID WERE WESONGA,254
1514,DAVID KAMAU MUTURI,254701839311
1514,CHARLES CHOMBA KAMAU,254722276429
1515,ANN NABWALA MARANI,254724761168
1516,ELIZABETH KATUU MUSYOKI,254
1517,FAITH WANGUI KARIUKI,254721381823
1519,JANE NYOKABI WANYOIKE,254 
1519,JOYCE NDUTA NJOROGE,254729759345
1520,MARTIN WACHIRA WAIRIMU,254704266439
1522,ERIC KIMATHI KATHENYA,254
1523,FREFRICK JUMA OTIENO,254712418516
1526,CYNTHIA LOKOI NYAMAI,254
1529,MICHAEL NDIRITU MURAGE,254
1532,AGATHA KULOLA HALLI,254722791622
1533,CAROLINE KAGENDO NYAGA,254717015007
1534,EBENEZAH SELF HELP GROUP,254
1535,WILLIAM KANYUMBA KARANJA,254713681113
1536,JOHN KARARI CHEGE,254721298155
1537,JOSEPH NYORO MAINA,254
1539,TERESIA ATIENO OYOLA,254712670033
1539,EDWARD NDUATI KURIA,254
1540,KENNETH KAUNDA KABURU,254721737237
1541,ANNE WANGARI NJUGUNA,254
1542,ELIZABETH NGIMA MWAI,254716105729
1544,SIMON KAMAU MWANTHI,254729833150
1545,JOHN GATEERE GITHINJI,254725406652
1547,BENSON KIRENGA WANJAU,254712783089
1548,MATHIAS MAKONJE MOYI,254723313256
1550,MURIUKI STEPHEN MAINA,254
,APHOESTINE NDEGWA MADZAO,254731595083
1553,FRANCIS GITHUI NDERITU,254710794538
1553,FAITH GROUP,254722821850
1555,JOHN KIAMBATI GITHUA,254
1556,TERESIA NYAMBURA MUKUNGA,254723709220
1559,NANCY WANJIRU KUNGU,254725492592
1561,BETHEL WOMEN GROUP,254721381823
1562,MERCY WAMUYU MUTHII,254
1563,JOHN MWANGI NJOGU,254
1566,NELSON KAIRU KARIUKI,254
1567,ZIPPORAH GACHEMI,254722295002
,DAVID GATUMU MURIUKI,254
1563,JOYCE MWENDE NYAGA,254721876086
1570,JOY NYAMBURA KIARIE,254729076796
1571,BLAISE MUKERI,254716477254
1572,WINNIE RESON KASICHANA SENDEU,254720540905
1573,HIRAM KARUGA MAINA,254728326792
1574,EVANGELINE WAMBUGI KIMOTHO,254729955539
1575,PURITY NYAGUTHII MAINA,254727499893
1576,PETER MWANGI KIMANI,254
1577,ALEX MUNGAI MWANGI,254722105741
1578,ESTHER WAIRIMU GITAU,254
1579,JANE MUTHONI KURIA,254
1580,GEOFFREY MUNENE MUTHANGA,254
1581,JACKSON WARUI NGANDU,254
1582,MONICAH WANGUI KINYA,254
1583,EVANS AMUNGA INGUTIA,254721403595
1584,DAMARIS CHIZI KAMBI,254
1585,ELIZABETH WANJIKU MUTHOGA,254721721399
1586,SPOE SELF HELP GROUP,254721601843
1587,ROSE MARY MURUGI MUTERO,254
1588,JOSEPHINE MUKINA KIRAGU,254722652463
1589,VIRGINIA NYAMWTHA ABDALLA,254
1590,BETHSAIDA GROUP,254
1591,MONICA BOKHE WAMBURA,254
1592,LUCY NKATHA MBAABU,254
1593,ANN WAMBUI CHEGE,254721344834
1594,JOSEPH KIRAGU WANJIRA,254722634225
1595,ESTHER WAIRIMU NGUGI,254
1596,TERESIA MUNANIA,254
1597,ROSA WAMBETI NJERU,254
1598,f m,254
1599,JEMMIMAH KATUNGE MUTUKU,254
1600,CAROLINE KAARI,254
1601,BETTY WAIRIMU NGURE,254722433578
1602,DAVID MIRARA GATHIGI,254
1603,JARED OSORO RANGI,254701605205
1604,ANASTASIA WANYAMA NABWIRE,254
1605,GRACE WANJIRU WACHIRA,254
1606,MICHAEL MBUVI KISILU,254
1607,JOYCE MUTHONI MUCHIRI,254
1608,MERCY WAMURINGO MUCHIRI,254
1609,EMMANUEL GROUP,254
1610,MARTIN NJUGUNA NJIHIA,254720802333
1611,JACKSON MUGO MUNGAI,254722737652
1612,PATRICK GUO MWAMBODZEI,254
1613,OKUMU TIMOTHY PETERZ,254
1614,FRANCIS NGIGI MWAURA,254
1615,LUCY MACHANGA,254
1616,JAMES MURIUKI KARAYA,254
1617,JAMES GITONGA WACHIRA,254
1618,BENSON NDUNGU THIONGO,254
1619,JOHN KAMAU NGANGA,254
1620,FRANCIS WAINAINA  WANYOIKE,254
1621,MARY NYOKABI WACHIRA,254
1622,SARAH NEKESA WANYONYI,254
1623,VINCENT OWUOR OWIRO,254721340960
1624,EUNICE KALUMU SAMUEL,254
1626,LUCY WAMBUI KANYIRI,254
1627,KING DAVID HOUSE,254
1628,ROSE MUTHONI MWAURA,254
1629,SUZZY NANZALA KHALAVO,254
1630,MOSES KATANA  MENZA,254
1631,MOSES GATITU NDUNGU,254725908789
1632,LILLIAN MUTUA,254
1633,NDUKU MUNYAO,254
1634,WILLIAM MURIITHI GATAMBUKI,254
1635,PAMELA WANJIKU WERU,254
1636,HAMISI BANGU MGALA,254
1637,MARGARET AMISI ABOKA,254
1638,KEBATI ONSERO ALEXANDER,254723819984
1639,SUSAN WANJIRU MURIU,254
1640,CHRISTINE ASUBILA MWIMALI,254
1642,JUDITH WAMBUI THEURI,254
1643,HALIMA CHUKA SAIDI,25472607719
1644,BLESSED VENTURES,254
1646,REBECCA NYAMISA OGERO,254
1647,YUNIA NYANCHAMA MIGIRO,254
1648,JOHN KENYATTA MWAITATI,254720769685
1649,ANTHONY GICHANGA GATHUA,254
1652,SAMWEL NDEGWA KARIUKI,254
1651,HELLEN AWINO AKELLO,254717396530
1653,SIMON WAMAE MAINA,254721924440
1654,CHARLES KYALO,254
1655,SIMON KURIA MAINA,254
1656,JANET MARGRET MSHAI,254
1657,ANGELINE NTHENYA KILUNGU,254707742941
1658,SIMON PETER MWANGI GITHOGORI,254727745113
1659,JOYCE  WAMBUI MURAGE,254
1660,POLLY WANJIRU GICHANGA,254
1661,BLESSED FAMILIES GROUP,254
1662,MERCY WANJIRA KIBANDI,254
1663,GEORGE AGILA ACHIENG,254738882869
1664,MARY WANJIRU NGARAMA,254720678915
1665,CHARLES THAIRU MWAURA,254721286589
1666,IRENE NYAWIRA KABUCHWA,254724685273
1667,SUZZANE ADHIAMBO NDUNG'U,254721836332
1668,LOISE WAMBUI MUTHOGA,254722963427
1669,PAULINE KAARI NKONGE,254726339170
1670,DENNIS KINYILI  MUUNDA,254719805252
1671,EMILY WANJA KARANJA,254
1672,GODFREY GACHAGO KABUGI,254723599870
1673,JACKLINE MASWAI MAKENA,254714668110
1674,MERCY GATHIGIA KURIA,254723026491
1675,WILSON KIMARU GITHUNJI,254724279345
1676,EVANGELINE NJOKI MURAGE,25472422227
1677,MARGARET NGENDO GATHUA,254713874243
1678,NAOMIE MWAKA PATO,254
1679,VAATI KIMONGO,254721550548
1680,TERESA NYAERA KINARA,254714803760
1681,FRIDA WAVINYA MUTURI,254725805377
1682,MARGARET MKANYIKA MWALEPE,254
1683,MARY ADHIAMBO MAWANGE,254
1684,MICHAEL OCHIENG OMONDI,254706254697
1685,BEATRICE WAMBUI MUGWIMA,254727125877
1686,SUSAN MUTHONI NGANGA,254725975965
1687,JOSPHINE WAMBUI IRUNGU,254718762598
1688,VIRGINIA WANJIKU MAINA,254720378735
1689,LYDIA WANJA NJIHIA,254721445607
1690,ANN MUMBI KIEMO,254717246552
1691,SERAH WANJIKU KAMAU,254721879056
1692,MILKA NYAMBURA IRERI,254
1693,FLORENCE WATEE GACHAU,254715746084
1694,MINNIE KANYI WANJA,254721445607
1695,PATRICK NGIGI THINDIU,254
1696,ELTRUDA MGHOI KATUNYO,254721174822
1697,PATIENCE ZILA MWAKUGHU,254
1698,MILTON MWACHIRU KITTI,254
1699,MARIAM SADA RUWA,254
1700,SHARLLET MWAKA MWIJAHA,254
1701,MUENI MUTUNGI,254
1702,JANE MUGURE MURAGE,254
1703,PHILIP NZAU MAILU,254
1704,EMILY NYAMBURA THAGISHO,254
1705,JEHOVAJIREH HOUSE,254
1706,MIRIAM WANJIKU NJUGUNA,254
1707,ANTONY MWANGANGI KATULO,254
1708,THE YOUNG SHOSH SELF HELP GROUP,254
1712,MARION MUKAMI NJERU,254
1713,PATRICK MUTURI KARIIRA,254
1715,ELIZABETH ADHIAMBO OTIENO,254
1716,GLADYS ZAWADI NGANDA,254
1717,THADEUS OTIENO OWINO,254
1718,MARK GICHINGA WANJOHI,254
1720,AGNES DAMA NAYENI,254
1721,MILDRED WANJE SHIVACH,254
1722,NANCY MUMBI NDUNGU,254
1723,JANE WANJIRU MUNDIA,254
1724,DANIEL NGIGI GITONGA,254
1725,GERTRUDE MARY NJERI WARUNI,254
1726,FLORENCE OCHIENG OKINYO,254
1727,JOSEPH MARAI KAWARA,254
1728,JULIET MUSIMBI KAMULA,254
1729,ABEL NYANKUNDI SIRO,254
1730,EUNICE NJAMBI KINYANJUI,254
1731,ROBINSON JOHN KURIA,254
1732,PRISCILLA NYAWIRA MATARO,254
1733,MARION NJERI KARATHI,254
1734,BENSON MWENDWA MASYULA,254
1735,DOREEN MUSANGI MUTHIANI,254
1736,HILLARY MANGULA NGAYWA ATSOLE,254
1737,EDWIN OMURENDE ASHUMA,254
1738,HUMPREY MAKOKHA WANYONYI,254
1739,LEAH NAUM ODEBERO,254
1740,TITUS NJOROGE MUNGAI,254
1741,FRANK NJUGUNA,254
1742,PAULINE WANJIRU KAMAU,254
1743,MERCY WACHU KAMAU,254
1744,JULIANA KAVULA MUNYUA,254
1745,MARY WANJIKU MWANGI,254
1746,EMMAH WAKIINI,254
1747,NELLY ALUOCH ODHIAMBO,254
1748,MARS CAROLINE AWUOR BARASA,254
1749,WLLIAM WAIHENYA MUIRURI,254
1750,BEATRICE KAVITA AMBITSI,254
1751,LOIS CHACHA MOKAMI,254
1752,CHRISPINE OTIENO MUMBO,254
1753,RISING STAR TWO SELFHELP GRUP,254
1754,CHARLES KABUGU NJAGA,254
1755,NATHAN  GICHINA KAMAU,254
1756,GEORGINA NGONYO MBURU,254
1757,AGNETAH KANINI PATRICK,254
1758,ESTHER MUUSI MUTUNGA,254
1759,JUDITH ODONGO ADHIAMBO,254
1760,JENNIFER WAITHERA MUGERA,254
1761,BEATRICE NDUTA NGANGA,254
1762,JOHN GATHEKIA MACHARIA,254
1763,CAROLINE WAMBUI NJI NJIJRAINI,254
1764,SAMUEL KARANJA WAITHAKA,254
1765,BERNARD NDUNGU`U KUNG`U,254
1766,CAROLYNE MWENDE MUKUNGA,254
1767,FREDRICK OCHIENG OKUMU,254
1768,SIMON MWIHIA THIANGA,254
1769,BERITA NDURU LONZI,254
1770,PETER NG'ANG'A NJENGA,254
1771,ROSE NJERI KENNETH,254
1772,ESTHER WANJIRU,254
1773,JOSEPH GIKARIA  NDIRITU,254
1774,EUNICE WANJIKU GIKARIA,254
1775,ELIZABETH GATIRI MWANGI,254
1776,LUCY NJAMBI WANJIRU,254
1777,MARY MUMBI MWANGI,254
1778,STEPHEN CHEGE MWANGI,254
1779,EUINICE KAGURE KINGA,254
1780,JANE WAIRIMU NGUGI,254
1781,JAMES MWANGI MUGANE,254
1782,FATUMA KAWIRIA,254
1783,CHRISTOPHER MWANGI KIUMA,254
1784,SKY IS THE LIMIT GROUP,254
1785,JAMES NDUNGU KIMANI,254
1786,GOOD SHERPHERD WOMEN GROUP,254
1787,TABITHA WANGUI NGUGI,254
1788,GOD OUR REFUGE,254
1789,GABRIEL ONDEGO,254
1790,KATHINI MAINGI,254
1791,CAROLINE AKINYI WERE,254
1792,ANDREW MWACHAKA MWAMBILI,254
1793,ESTHER WAMBUI  RUKWARO,254
1794,JECINTA NYAMBURA KIMANI,254
1795,EDWARD MUIRURI GREGORY,254
1796,ALISTER MNDOLO MUSYOKA,254
1797,REGINA MWENDE MUTUA,254
1798,ROSEMARY MUSYAWA MAKAU,254
1799,VIOLET MAPESA NJOMO,254
1800,WILSON KANYI NYAMBURA,254
1801,AMOS MBUGUA WARUIRU,254
1802,JOHN NJENGA GITAU,254
1803,HELLEN KATUMBE WAMBUA,254
1804,MILLICENT MUTHONI NDUNGU,254
1805,AMOS TEYA MASENO,254
1806,MARY NYAMBURA KAMAU,254
1807,TERESIA WAITHERA KARIUKI,254
1808,MERCY MASESE OSORO,254
1809,RUTH NJERI WAMBUI,254
1810,CATHERINE NJERI KAGOTHO,254
1811,MARY NJERI NDUNGU,254
1812,SAMUEL KARANJA WANYUMBA,254
1813,MORRIS MUTAI MAGAMBO,254
1814,SYLVESTER KARANJA KABATHA,254
1815,GEORGE NGIGI NJOROGE,254
1816,PERIS WANJIKU,254
1817,PRESBYTERIAN GIRLS HIGH SCHOOL PWANI,254
1818,GREGORY KYULI MUNYOKI,254
1819,NATHAN OCHIENG MBULA,254
1820,JOSEPH MUNGA LEWA,254
1821,LINDA WACHEKE NJENGA,254
1822,MWIMA MADINA ATICHI,254
1823,JOSEPH NJOROGE WANGUI,254
1824,JOSEPH KARIGOHI NDIRANGU,254
1825,ANN MUTUO,254
1826,MARY WANGARI MURIUKI,254
1827,SAMWEL MOSES,254
1828,LINNET AUMA ONGO,254
1829,JAMES KIBOI KARIUKI,254
1830,STELLA NZEMBI MUTHOKA,254
1831,JENIPHER KAMBE KINYAI,254
1832,ROBERT NCEENE KIRIMI,254
1833,EVERLINE MKANYIKA WAMISI,254
1834,FRANCIS MUNENE WABITA,254
1835,FRANCIS MUNENE WABITA,254
1836,FRANCIS MUNENE WABITA,254
1837,JUDITH CHIZI  BAYA,254
1838,ERICK OMWOYO OIRA,254
1839,CAROLINE NYAWIRA KAGIA,254
1840,MARY SHIFUNJE MATARO,254
1841,REUBEN MUGAMBI NYAGA,254
1842,ALFRED MWAMACHI,254
1843,JANE JENDEKA AMBWERE,254
1844,EMMA WANJIRU MWANIKI,254
1845,JUDITH CHIZI BAYA,254
1846,SUSAN MULUNDE KUSU,254
1847,JAMES NGOTHO NJOROGE,254
1848,PATRICK MATHERI KINUNGI,254
1849,JOSEPH  MATIVO KITHOME,254
1850,SUSAN NYAMBURA MWANGI,254
1851,JOYCE WAITHIRA NG'ANG'A,254
1852,MARY NJOKI NGURU,254
1853,JUDITH MUENI MWANTHI,254
1854,YONAH NECHIO AURA,254
1855,MARY ANDERU OKWEMBA,254
1856,DORCAS WAIRIMU NDIRANGU,254
1857,QUINTER AWUOR ADERA,254
1858,ALICE NJERI KARANJA,254
1859,JOSHUA NYORI NJUGUNA,254
1860,MARY WAMBUI KARWAMBA,254
1861,WINNIE WAMUHU MURUGAMI,254
1862,PRISCILLAH WAMBUI KAMUTU,254
1863,JACQUELINE SELINA PAMBA,254
1864,JOEL KARURI RIIA,254
1865,CHRISTINE NJERI NJUGUNA,254
1866,NAOMI WANJA MWANGI,254
1867,NAOMI WANJA MWANGI,254
1868,MARY NYAGUTHII GATONYE,254
1869,PETER OTIENO OCHIENG,254
1870,PETER MAINA MUKURURO,254
1871,RUTH WAMBUI NJUGUNA,254
