50201,KARIUKI,CHARLES NYANDIA,CHARLES@MWAN,3/28/2017,0721632207,25582413,500,0,2000,1000,2000
050202,MBURU,MARY WAMBUI,,2/1/2017,0726919053,25258740,500,0,0,1000,0
050203,NDUNGU,SARAH WAMBUI,,2/3/2017,0723534397,23179645,500,0,0,0,0
050204,NDUNGU,JOSEPH KIHIA,,3/2/2017,0725490639,22634201,500, -   ,0,0,0
050205,JULIA,CATHERINE WAMBUGHA,,3/1/2017,0711901301,22634680,500,MEMBERSHIP FEE,#VALUE!,1000,2000
050206,KABOTIA,SAMWEL,,3/1/2017,0721521945,20485197,500,500,500,0,0
050207,CHAMWADA,DAVID GUDAHI,,3/3/2017,0725711528,24668435,500,500,500,1000,0
050208,BOLO,BRIAN CARTER,,3/2/2017,0721590781,,500,500,500,1000,0
050209,KIVUTI,RAPHAEL MUGAMBI,,2/3/2017,0714772186,27867819,500,500,500,500,0
050210,MACHOKA,DOUGLAS MAKORI ,,3/21/2017,0727724762,24226409,500,500,500,0,0
050211,ONKOBA,THOMAS MOGIRE,,3/21/2017,0726949911,22956227,500,500,500,0,0
050212,TITUS,JONES MUSYOKI,,3/3/2017,0795336423,,500,500,500,500,0
050213,NYOIKE,BRIAN MUNGAI,,3/29/2017,0705820382,,500,500,1000,1000,500
050214,KIOKO,JOSEPH MWENDWA,,4/5/2017,0718891888,,500,500,1000,1000,500
050215,MUTINDA,MARY WAMBUA,,3/28/2017,0724459468,,500,500,500,0,0
050216,ODANGA,MOAH ANZUGIRA,,4/1/2017,0722425131,,500,500,500,1000,0
050217,PESSAH,SOPHIA MNYARI,,4/3/2017,0729563848,,500,500,500,500,0
050218,MAKITI,CATHERINE NZULA,,4/10/2017,0722756510,,500,500,500,0,0
050219,GEORGE ,LUCIA NGINA,,4/12/2017,0726685959,,500,500,500,0,0
050220,ITYENG,ESPERITO,,5/8/2017,0725781186,,500,500,500,0,0
050221,MAKITE,MERCY KATHURE,,4/3/2017,0716296619,,500,500,500,0,0
050222,MIRITI,,,3/2/2017,,,500,500,500,500,0
050223,MWANGI ,DAVID KIMANI,,3/2/2017,0720207273,,500,500,2500,1000,2000
050224,MACHARIA,HUMPHREY,,3/2/2017,0720442853,,500,500,500,1000,0
050225,MOKAYA,MARGARET,,5/10/2017,0703309428,,500,500,500,1000,0
050226,KARUGU,JACK MWANGI,,5/12/2017,0729811775,,500,500,500,0,0
050227,KIMARU,BEATRICE WANGUI,,5/12/2017,0715516492,,500,500,500,0,0
050228,KARUGU,DAVID NJOROGE,,5/12/2017,0704392825,,500,500,500,0,0
050229,KARANJA,MARGARET NYAMBURA,,5/13/2017,0725433061,,500,500,500,1000,0
050230,JOAN ,MWENDE KIMEU,,5/17/2017,0721778057,,500,500,500,1000,0
050231,KARIGITHU,CHARLES MENJA,,5/23/2017,0722410189,,500,500,500,1000,0
050232,MWAU ,MBITHE JUSTINA,,6/6/2017,0723043538,,500,500,2500,500,2000
050233,KABURIA,JENNIFER ,,7/4/2017,0722309456,,500,500,1500,1000,1000
050234,MURIUKI,JUSTUS NJOGU,,7/21/2017,,,500,500,500,1000,0
050235,MURIMI,BERNARD,,7/21/2017,0710532624,,500,500,500,0,0
05236,NYAKEYA ,ABEL ABERI,,8/1/2017,,,500,500,500,500,0
05237,CHARO,MARSEDEN RUWA,,3/1/2018,0726822410,22480351,500,500,8500,1000,0
05238,,,,,,,,,,,
05239,,,,,,,,,,,
05240,,,,,,,,,,,
05241,,,,,,,,,,,
